Java 1D Array (Easy);10;12;Easy;https://www.hackerrank.com/challenges/java-1d-array-easy
Java Comparator;10;15;Moderate;https://www.hackerrank.com/challenges/java-comparator
Java Sort;10;20;Easy;https://www.hackerrank.com/challenges/java-sort
Java Generics;15;20;Easy;https://www.hackerrank.com/challenges/java-generics
Java Map;10;22;Easy;https://www.hackerrank.com/challenges/phone-book
Java Stack;20;22;Moderate;https://www.hackerrank.com/challenges/java-stack
Java Arraylist;10;22;Easy;https://www.hackerrank.com/challenges/java-arraylist
Java Hashset;10;25;Easy;https://www.hackerrank.com/challenges/java-hashset
Java Dequeue;20;35;Moderate;https://www.hackerrank.com/challenges/java-dequeue
Java 1D Array (Hard);25;40;Moderate;https://www.hackerrank.com/challenges/java-1d-array
Java 2D Array;10;50;Easy;https://www.hackerrank.com/challenges/java-2d-array
