Java Inheritance 1;5;18;Easy;https://www.hackerrank.com/challenges/java-inheritance-1
Java Inheritance 2;10;22;Easy;https://www.hackerrank.com/challenges/java-inheritance-2
Java Abstract Class;10;22;Easy;https://www.hackerrank.com/challenges/java-abstract-class
Java Interface;10;22;Easy;https://www.hackerrank.com/challenges/java-interface
Java Instanceof keyword;10;22;Easy;https://www.hackerrank.com/challenges/java-instanceof-keyword
Java Method Overriding;10;22;Easy;https://www.hackerrank.com/challenges/java-method-overriding
Java Method Overriding 2 (Super Keyword);10;23;Easy;https://www.hackerrank.com/challenges/java-method-overriding-2-super-keyword
Calculating Volume;20;30;Moderate;https://www.hackerrank.com/challenges/calculating-volume
Java Iterator;15;35;Easy;https://www.hackerrank.com/challenges/java-iterator
