Java Strings Introduction;5;12;Easy;https://www.hackerrank.com/challenges/java-strings-introduction
Java String Compare;10;12;Easy;https://www.hackerrank.com/challenges/java-string-compare
Java Anagrams;10;12;Easy;https://www.hackerrank.com/challenges/java-anagrams
Java String Reverse;10;12;Easy;https://www.hackerrank.com/challenges/java-string-reverse
Java String Token;15;15;Easy;https://www.hackerrank.com/challenges/java-string-token
Pattern Syntax Checker;20;15;Easy;https://www.hackerrank.com/challenges/pattern-syntax-checker
Java Regex;25;30;Moderate;https://www.hackerrank.com/challenges/java-regex
Tag Content Extractor;20;30;Moderate;https://www.hackerrank.com/challenges/tag-content-extractor
Java Regex 3 - Username Checker;20;30;Moderate;https://www.hackerrank.com/challenges/valid-username-checker
Java Regex 2 - Duplicate Words;25;35;Easy;https://www.hackerrank.com/challenges/duplicate-word
