Find Point;5;6;Easy;https://www.hackerrank.com/challenges/find-point
Minimum Draws;5;6;Easy;https://www.hackerrank.com/challenges/minimum-draws
Handshake;10;8;Easy;https://www.hackerrank.com/challenges/handshake
Connecting Towns;10;8;Easy;https://www.hackerrank.com/challenges/connecting-towns
Summing the N series;20;9;Moderate;https://www.hackerrank.com/challenges/summing-the-n-series
Sherlock and Permutations;20;12;Difficult;https://www.hackerrank.com/challenges/sherlock-and-permutations
Sherlock and Moving Tiles;20;12;Easy;https://www.hackerrank.com/challenges/sherlock-and-moving-tiles
Filling Jars;20;12;Easy;https://www.hackerrank.com/challenges/filling-jars
Strange Grid;20;12;Easy;https://www.hackerrank.com/challenges/strange-grid
Halloween party;20;12;Easy;https://www.hackerrank.com/challenges/halloween-party
Diwali Lights;20;12;Moderate;https://www.hackerrank.com/challenges/diwali-lights
Is Fibo;20;12;Moderate;https://www.hackerrank.com/challenges/is-fibo
Sherlock and Divisors;30;15;Easy;https://www.hackerrank.com/challenges/sherlock-and-divisors
Reverse Game;30;15;Easy;https://www.hackerrank.com/challenges/reverse-game
Restaurant;30;15;Easy;https://www.hackerrank.com/challenges/restaurant
Matrix Tracing;30;15;Difficult;https://www.hackerrank.com/challenges/matrix-tracing
Special Multiple;30;15;Moderate;https://www.hackerrank.com/challenges/special-multiple
Die Hard 3;30;15;Moderate;https://www.hackerrank.com/challenges/die-hard-3
Even Odd Query;30;15;Difficult;https://www.hackerrank.com/challenges/even-odd-query
Sumar and the Floating Rocks;30;19;Easy;https://www.hackerrank.com/challenges/harry-potter-and-the-floating-rocks
Bus Station;30;19;Moderate;https://www.hackerrank.com/challenges/bus-station
K Candy Store;30;19;Moderate;https://www.hackerrank.com/challenges/k-candy-store
Jim and the Jokes;30;21;Moderate;https://www.hackerrank.com/challenges/jim-and-the-jokes
Possible Path;20;50;Easy;https://www.hackerrank.com/challenges/possible-path
