Rectangular Game;20;11;Easy;https://www.hackerrank.com/challenges/rectangular-game
Sherlock and Planes;20;12;Easy;https://www.hackerrank.com/challenges/sherlock-and-planes
Sherlock and Counting;20;12;Difficult;https://www.hackerrank.com/challenges/sherlock-and-counting
Circle City;30;17;Moderate;https://www.hackerrank.com/challenges/circle-city
Spheres;30;17;Moderate;https://www.hackerrank.com/challenges/spheres
Jim Beam;40;21;Difficult;https://www.hackerrank.com/challenges/jim-beam
Stars;50;27;Easy;https://www.hackerrank.com/challenges/stars
Polar Angles;50;27;Moderate;https://www.hackerrank.com/challenges/polar-angles
Sherlock and Geometry;60;42;Advanced;https://www.hackerrank.com/challenges/sherlock-and-geometry
Polygon;80;61;Difficult;https://www.hackerrank.com/challenges/polygon
Polygons;80;64;Difficult;https://www.hackerrank.com/challenges/polygons
House Location;80;66;Difficult;https://www.hackerrank.com/challenges/house-location
Meeting Point;80;66;Difficult;https://www.hackerrank.com/challenges/meeting-point
Jim and the Challenge;90;72;Moderate;https://www.hackerrank.com/challenges/jim-and-the-challenge
Best Sum;100;81;Advanced;https://www.hackerrank.com/challenges/best-sum
Geometry Queries;100;81;Advanced;https://www.hackerrank.com/challenges/geometry-queries
Isosceles Triangles;250;91;Difficult;https://www.hackerrank.com/challenges/isosceles-triangles
Count Triangles;200;91;Moderate;https://www.hackerrank.com/challenges/count-triangles
