Sherlock and GCD;20;12;Easy;https://www.hackerrank.com/challenges/sherlock-and-gcd
Identify Smith Numbers;20;12;Easy;https://www.hackerrank.com/challenges/identify-smith-numbers
Closest Number;30;15;Moderate;https://www.hackerrank.com/challenges/closest-number
Little Panda Power;30;19;Difficult;https://www.hackerrank.com/challenges/littlepandapower
Fibonacci Finding (easy);30;19;Easy;https://www.hackerrank.com/challenges/fibonacci-finding-easy
Euler's Criterion;30;19;Easy;https://www.hackerrank.com/challenges/eulers-criterion
Mehta and his Laziness;30;21;Difficult;https://www.hackerrank.com/challenges/mehta-and-his-laziness
Power of large numbers;40;22;Moderate;https://www.hackerrank.com/challenges/power-of-large-numbers
Akhil and GF;40;25;Difficult;https://www.hackerrank.com/challenges/akhil-and-gf
Help Mike;40;25;Difficult;https://www.hackerrank.com/challenges/help-mike
Salary Blues;40;25;Moderate;https://www.hackerrank.com/challenges/salary-blues
Dancing in Pairs;40;25;Difficult;https://www.hackerrank.com/challenges/dance-class
Little Ashish's Huge Donation;40;26;Difficult;https://www.hackerrank.com/challenges/little-chammys-huge-donation
Manasa and Factorials;40;26;Difficult;https://www.hackerrank.com/challenges/manasa-and-factorials
Number of zero-xor subsets;40;28;Moderate;https://www.hackerrank.com/challenges/number-of-subsets
Cheese and Random Toppings;30;29;Easy;https://www.hackerrank.com/challenges/cheese-and-random-toppings
Manasa loves Maths;50;31;Moderate;https://www.hackerrank.com/challenges/manasa-loves-maths
John and GCD list;50;34;Easy;https://www.hackerrank.com/challenges/john-and-gcd-list
Largest Non-Coprime Submatrix;50;35;Difficult;https://www.hackerrank.com/challenges/largest-coprime-submatrix
Strange numbers;50;36;Difficult;https://www.hackerrank.com/challenges/strange-numbers
Easy math;50;38;Moderate;https://www.hackerrank.com/challenges/easy-math
Binomial Coefficients;60;43;Moderate;https://www.hackerrank.com/challenges/binomial-coefficients
Equations;60;44;Moderate;https://www.hackerrank.com/challenges/equations
Devu Vs Police;60;45;Moderate;https://www.hackerrank.com/challenges/lucy-and-flowers
Lucy and Flowers;60;45;Difficult;https://www.hackerrank.com/challenges/devu-police
A Weird Function;60;45;Moderate;https://www.hackerrank.com/challenges/a-weird-function
Superpowers of 2;60;45;Advanced;https://www.hackerrank.com/challenges/superpowers
Divisibility of Power;60;45;Moderate;https://www.hackerrank.com/challenges/sherlock-puzzle
Sherlock Puzzle;60;45;Difficult;https://www.hackerrank.com/challenges/divisibility-of-power
Ichigo and Cubes;60;49;Moderate;https://www.hackerrank.com/challenges/ichigo-and-cubes
Chandrima and XOR;60;49;Difficult;https://www.hackerrank.com/challenges/chandrima-and-xor
Scalar Products;80;50;Difficult;https://www.hackerrank.com/challenges/scalar-products
Ants;60;51;Moderate;https://www.hackerrank.com/challenges/hyperrectangle-gcd
Hyperrectangle GCD;60;51;Moderate;https://www.hackerrank.com/challenges/prime-sum
Prime Sum;70;51;Moderate;https://www.hackerrank.com/challenges/ants
Find The Operations;80;61;Difficult;https://www.hackerrank.com/challenges/flip
Ichigo and Rooms;80;61;Moderate;https://www.hackerrank.com/challenges/ichigo-and-rooms
Unfriendly Numbers;80;65;Difficult;https://www.hackerrank.com/challenges/unfriendly-numbers
Fibonacci LCM;80;65;Difficult;https://www.hackerrank.com/challenges/a-very-special-multiple
A Very Special Multiple;80;65;Difficult;https://www.hackerrank.com/challenges/pmix
Mixing proteins;80;65;Difficult;https://www.hackerrank.com/challenges/hackerrank-number
HackerRank Number;80;65;Expert;https://www.hackerrank.com/challenges/fibonacci-lcm
Fibonacci GCD;80;65;Difficult;https://www.hackerrank.com/challenges/fibonacci-gcd
Ajob Subsequence;80;68;Moderate;https://www.hackerrank.com/challenges/ajob-subsequence
The Bouncing Flying Ball;100;73;Difficult;https://www.hackerrank.com/challenges/matrix-tree
Matrix Tree;100;73;Moderate;https://www.hackerrank.com/challenges/eugene-and-big-number
Eugene and Big Number;100;73;Moderate;https://www.hackerrank.com/challenges/the-bouncing-flying-ball
Period;100;75;Difficult;https://www.hackerrank.com/challenges/period
Nice Clique;100;75;Moderate;https://www.hackerrank.com/challenges/niceclique
Order of Prime in Factorial;100;75;Difficult;https://www.hackerrank.com/challenges/order-of-prime-in-factorial
Degree of an algebraic number;100;75;Advanced;https://www.hackerrank.com/challenges/degree-of-an-algebraic-number
GCD Sequence;100;75;Difficult;https://www.hackerrank.com/challenges/gcd-sequence
Computer Virus;100;75;Advanced;https://www.hackerrank.com/challenges/demidenko-computer-virus
Fun with 1010;120;89;Expert;https://www.hackerrank.com/challenges/fun-with-1010
Laser Beam;120;91;Expert;https://www.hackerrank.com/challenges/laser-beam
nCr;120;91;Expert;https://www.hackerrank.com/challenges/ncr
Down the Rabbit Hole;120;91;Moderate;https://www.hackerrank.com/challenges/down-the-rabbit-hole
Minion of the Year;120;93;Expert;https://www.hackerrank.com/challenges/minion-of-the-year
GCD Product;150;93;Difficult;https://www.hackerrank.com/challenges/gcd-product
GCD mocktail;150;93;Advanced;https://www.hackerrank.com/challenges/gcd-mocktail
