Security - Message Space and Ciphertext Space;10;5;Easy;https://www.hackerrank.com/challenges/security-message-space-and-ciphertext-space
Security Key Spaces;10;10;Easy;https://www.hackerrank.com/challenges/security-key-spaces
Security Encryption Scheme;10;13;Easy;https://www.hackerrank.com/challenges/security-encryption-scheme
