Indexes - 1;2;0;https://www.hackerrank.com/challenges/indexes-1
Indexes - 2;2;0;https://www.hackerrank.com/challenges/indexes-2
Indexes - 3;2;0;https://www.hackerrank.com/challenges/indexes-3
Indexes - 4;2;0;https://www.hackerrank.com/challenges/indexes-4
