Querying XML Datastores with XPath - 5;15;0;Easy;https://www.hackerrank.com/challenges/querying-xml-datastores-with-xpath-1-4
Querying XML Datastores with XPath - 2;10;0;Easy;https://www.hackerrank.com/challenges/querying-xml-datastores-with-xpath-1-1
Querying XML Datastores with XPath - 1;10;30;Easy;https://www.hackerrank.com/challenges/querying-xml-datastores-with-xpath-1
Querying XML Datastores with XPath - 3;15;35;Easy;https://www.hackerrank.com/challenges/querying-xml-datastores-with-xpath-3
Querying XML Datastores with XPath - 4;15;40;Easy;https://www.hackerrank.com/challenges/querying-xml-datastores-with-xpath-4
Querying XML Datastores with XPath - 10;15;40;Moderate;https://www.hackerrank.com/challenges/querying-xml-datastores-with-xpath-10
Querying XML Datastores with XPath - 9;15;45;Difficult;https://www.hackerrank.com/challenges/querying-xml-datastores-with-xpath-9
Querying XML Datastores with XPath - 6;15;45;Easy;https://www.hackerrank.com/challenges/querying-xml-datastores-with-xpath-6
Querying XML Datastores with XPath - 8;15;50;Moderate;https://www.hackerrank.com/challenges/querying-xml-datastores-with-xpath-8
Querying XML Datastores with XPath - 7;20;50;Easy;https://www.hackerrank.com/challenges/querying-xml-datastores-with-xpath-7
Querying XML Datastores with XPath - 11;15;55;Moderate;https://www.hackerrank.com/challenges/querying-xml-datastores-with-xpath-11
Map Reduce Advanced - Count number of friends;30;60;Difficult;https://www.hackerrank.com/challenges/map-reduce-advanced-count-number-of-friends
Map Reduce Advanced - Relational Join;40;70;Difficult;https://www.hackerrank.com/challenges/map-reduce-advanced-relational-join
Map Reduce Advanced - Matrix Multiplication;50;80;Advanced;https://www.hackerrank.com/challenges/map-reduce-advanced-matrix-multiplication
