Relations - 2;2;0;;https://www.hackerrank.com/challenges/relations-2
Relational Algebra - 3;2;0;;https://www.hackerrank.com/challenges/relational-algebra-3
Relations - 1;2;0;;https://www.hackerrank.com/challenges/relations-1
Relational Algebra - 4;2;0;;https://www.hackerrank.com/challenges/relational-algebra-4
Database Query Languages;2;0;;https://www.hackerrank.com/challenges/database-query-languages
Procedural Language;2;0;;https://www.hackerrank.com/challenges/procedural-language
Basics of Sets and Relations #2;5;5;Easy;https://www.hackerrank.com/challenges/basics-of-sets-and-relational-algebra-2
Basics of Sets and Relations #1;5;5;Easy;https://www.hackerrank.com/challenges/basics-of-sets-and-relational-algebra-1
Basics of Sets and Relations #4;5;10;Easy;https://www.hackerrank.com/challenges/basics-of-sets-and-relational-algebra-4
Basics of Sets and Relations #5;5;10;Easy;https://www.hackerrank.com/challenges/basics-of-sets-and-relational-algebra-5
Basics of Sets and Relations #3;5;10;Easy;https://www.hackerrank.com/challenges/basics-of-sets-and-relational-algebra-3
Basics of Sets and Relations #6;5;15;Easy;https://www.hackerrank.com/challenges/basics-of-sets-and-relational-algebra-6
Basics of Sets and Relations #7;5;15;Easy;https://www.hackerrank.com/challenges/basics-of-sets-and-relational-algebra-7
