Databases - Differences;5;25;Moderate;https://www.hackerrank.com/challenges/databases-differences
Databases - Keys;5;25;Moderate;https://www.hackerrank.com/challenges/databases-keys
Databases - Natural Joins;5;25;Moderate;https://www.hackerrank.com/challenges/databases-natural-joins
Databases - Relational Calculus;5;30;Moderate;https://www.hackerrank.com/challenges/databases-relational-calculus
