BrainF__k interpreter;100;62;Advanced;https://www.hackerrank.com/challenges/brainf-k-interpreter-fp
While Language;150;82;Expert;https://www.hackerrank.com/challenges/while-language-fp
Down With Abstractions;150;93;Expert;https://www.hackerrank.com/challenges/down-with-abstractions
Intuitive language;150;97;Expert;https://www.hackerrank.com/challenges/intuitive-language
Infer;150;99;Expert;https://www.hackerrank.com/challenges/infer
