Name;Points;Difficulty Points;;Difficulty;Domain;Subdomain;
Solve me first;1;0;Easy;;Algorithms;Warmup;
Solve me second;;;Easy;Algorithms;;Warmup;neexistuje
Simple Array Sum;10;3;Easy;;Algorithms;Warmup;
A Very Big Sum;10;6;Easy;;Algorithms;Warmup;
Diagonal Difference;10;5;Easy;;Algorithms;Warmup;
Plus Minus;10;8;Easy;;Algorithms;Warmup;
Staircase;10;4;Easy;;Algorithms;Warmup;
Time Conversion;15;8;Easy;;Algorithms;Warmup;
Library Fine;15;10;Easy;;Algorithms;Implementation;
Caesar Cipher;15;11;Easy;;Algorithms;Implementation;
Extra long factorials;20;13;Moderate;;Algorithms;Implementation;
Sherlock and The Beast;30;23;Easy;;Algorithms;Implementation;
Utopian Tree;20;14;Easy;;Algorithms;Implementation;
Find Digits;25;20;Easy;;Algorithms;Implementation;
Service Lane;20;13;Easy;;Algorithms;Implementation;
Chocolate Feast;25;15;Easy;;Algorithms;Implementation;
Cavity Map;30;21;Easy;;Algorithms;Implementation;
Manasa and Stones;30;15;Easy;;Algorithms;Implementation;
Encryption;30;28;Moderate;;Algorithms;Implementation;
Funny String;25;15;Easy;;Algorithms;Strings;
Pangrams;20;14;Easy;;Algorithms;Strings;
Alternating Characters;20;12;;Easy;Algorithms;Strings;
Game of Thrones - I;30;15;Easy;;Algorithms;Strings;
Gemstones;20;12;Easy;;Algorithms;Strings;
Anagram;25;19;Easy;;Algorithms;Strings;
The Love-Letter Mystery;20;12;Easy;;Algorithms;Strings;
Common Child;60;55;Difficult;;Algorithms;Strings;
Intro to Tutorial Challenges;30;20;Easy;;Algorithms;Sorting;
Insertion Sort - Part 1;30;23;Easy;;Algorithms;Sorting;
Closest Numbers;35;35;Easy;;Algorithms;Sorting;
Ice Cream Parlor;30;15;Easy;;Algorithms;Search;
Missing Numbers;45;42;Moderate;;Algorithms;Search;
Pairs;40;49;Moderate;;Algorithms;Search;
Even Tree;50;46;Moderate;;Algorithms;Graph Theory;
Snakes and Ladders: The Quickest Way Up;50;47;Easy;;Algorithms;Graph Theory;
Two Arrays;40;37;Easy;;Algorithms;Greedy;
Flowers;35;32;Moderate;;Algorithms;Greedy;
Max Min;35;33;Moderate;;Algorithms;Greedy;
Lonely Integer;20;15;Easy;;Algorithms;Bit Manipulation;
Maximizing XOR;30;15;Easy;;Algorithms;Bit Manipulation;
Flipping Bits;40;15;Easy;;Algorithms;Bit Manipulation;
FizzBuzz;20;;Advanced;;Algorithms;Code Golf;nezaradené
Arrays- DS;10;5;Easy;;Data Structures;Arrays;
Print the Elements of a linked list;5;11;Easy;;Data Structures;Linked Lists;
Find Point;5;6;Easy;;Mathematics;Fundamentals;
Minimum Draws;5;6;Easy;;Mathematics;Fundamentals;
Connecting Towns;10;8;Easy;;Mathematics;Fundamentals;
Handshake;10;8;Easy;;Mathematics;Fundamentals;
Halloween Party;20;12;Easy;;Mathematics;Fundamentals;
Filling Jars;20;12;Easy;;Mathematics;Fundamentals;
Is Fibo;20;12;Moderate;;Mathematics;Fundamentals;
Equations;60;44;Moderate;;Mathematics;Number Theory;
Building a List;40;25;Expert;;Mathematics;Combinatorics;
Picking Cards;50;38;Easy;;Mathematics;Combinatorics;
B'day Gift;30;17;Easy;;Mathematics;Probability;
Welcome To Java!;3;1;Easy;;Java;Introduction;
Java If-Else;10;1;Easy;;Java;Introduction;
Java Stdin and Stdout 1;5;2;Easy;;Java;Introduction;
Select All;10;3;Easy;;SQL;Basic Select;
Select by ID;10;6;Easy;;SQL;Basic Select;
Japanese Cities' Detail;10;6;Easy;;SQL;Basic Select;
Japanese Cities' Name;10;6;Easy;;SQL;Basic Select;
Weather Observation Station 1;15;6;Easy;;SQL;Basic Select;
Weather Observation Station 3;10;9;Easy;;SQL;Basic Select;
Weather Observation Station 4;10;9;Easy;;SQL;Basic Select;
Weather Observation Station 5;30;20;Moderate;;SQL;Basic Select;
Weather Observation Station 6;10;25;Easy;;SQL;Basic Select;
Weather Observation Station 7;10;25;Easy;;SQL;Basic Select;
Weather Observation Station 8;15;25;Easy;;SQL;Basic Select;
Weather Observation Station 9;10;25;Easy;;SQL;Basic Select;
Weather Observation Station 10;10;25;Easy;;SQL;Basic Select;
Weather Observation Station 11;15;25;Easy;;SQL;Basic Select;
Weather Observation Station 12;15;25;Easy;;SQL;Basic Select;
Revising the Select Query - 1;10;3;Easy;;SQL;Basic Select;
Revising the Select Query - 2;10;3;Easy;;SQL;Basic Select;
Higher Than 75 Marks;15;25;Moderate;;SQL;Basic Select;
Let's Echo;1;1;Easy;;Linux Shell;Bash;
Looping and Skipping;2;2;Easy;;Linux Shell;Bash;
A Personalized Echo;1;3;Easy;;Linux Shell;Bash;
Looping with Numbers;2;4;Easy;;Linux Shell;Bash;
The World of Numbers;2;5;Easy;;Linux Shell;Bash;
Comparing Numbers;3;5;Easy;;Linux Shell;Bash;
Getting started with conditionals;3;7;Easy;;Linux Shell;Bash;
Cut #1;1;6;Easy;;Linux Shell;Text Processing;
Cut #2;1;9;Easy;;Linux Shell;Text Processing;
Head of a Text File #1;2;13;Easy;;Linux Shell;Text Processing;
Head of a Text File #2;2;23;Easy;;Linux Shell;Text Processing;
Tr' Command #1;1;27;Easy;;Linux Shell;Text Processing;
Tr' Command #2;1;32;Easy;;Linux Shell;Text Processing;
Sort Command #1;1;20;Easy;;Linux Shell;Text Processing;
Sort Command #2;1;30;Easy;;Linux Shell;Text Processing;
Grep' #1;2;31;Easy;;Linux Shell;Grep Sed Awk;
Grep' #2;2;42;Easy;;Linux Shell;Grep Sed Awk;
Solve me first FP;3;0;Easy;;Functional Programming;Introduction;
Lambda Calculus - Evaluating Expressions #1;5;0;Easy;;Functional Programming;Introduction;
Lambda Calculus - Evaluating Expressions #2;5;0;Easy;;Functional Programming;Introduction;
Lambda Calculus - Evaluating Expressions #3;5;0;Easy;;Functional Programming;Introduction;
Lambda Calculus - Evaluating Expressions #4;5;0;Moderate;;Functional Programming;Introduction;
Lambda Calculus - Evaluating Expressions #5;5;0;Moderate;;Functional Programming;Introduction;
Hello World;5;2;Easy;;Functional Programming;Introduction;
Hello World N Times;5;3;Easy;;Functional Programming;Introduction;
List Replication;10;5;Easy;;Functional Programming;Introduction;
Filter Array;10;7;Easy;;Functional Programming;Introduction;
Filter positions in a list;10;16;Easy;;Functional Programming;Introduction;
Array Of N Elements;10;11;Easy;;Functional Programming;Introduction;
Reverse a list;10;13;Easy;;Functional Programming;Introduction;
Sum of odd elements;10;15;Easy;;Functional Programming;Introduction;
List Length;10;10;Easy;;Functional Programming;Introduction;
Update List;10;8;Easy;;Functional Programming;Introduction;
Evaluating e^x;20;21;Easy;;Functional Programming;Introduction;
Computing the GCD;2;18;Easy;;Functional Programming;Recursion;
Fibonacci Numbers;2;19;Easy;;Functional Programming;Recursion;
Prefix Compression;10;43;Easy;;Functional Programming;Recursion;
String Reductions;10;35;Easy;;Functional Programming;Recursion;
Pascal's Triangle;10;23;Easy;;Functional Programming;Recursion;
Rotate String;20;34;Easy;;Functional Programming;Ad Hoc;
Matching Specific String;5;0;Easy;;Regex;Introduction;
Matching Word & Non-Word Character;5;1;Easy;;Regex;Introduction;
Matching Digits & Non-Digit Characters;5;1;Easy;;Regex;Introduction;
Matching Whitespace & Non-Whitespace Character;5;1;Easy;;Regex;Introduction;
Matching Anything But a Newline;5;2;Easy;;Regex;Introduction;
Matching Start & End;5;2;Easy;;Regex;Introduction;
Matching Specific Characters;10;3;Easy;;Regex;Character Class;
Excluding Specific Characters;10;4;Easy;;Regex;Character Class;
Matching Range Of Characters;10;5;Easy;;Regex;Character Class;
Matching {x} Repetitions;20;6;Easy;;Regex;Repetitions;
Matching {x,y} Repetitions;20;6;Easy;;Regex;Repetitions;
Matching Zero Or More Repetitions;20;7;Easy;;Regex;Repetitions;
Matching One Or More Repetitions;20;7;Easy;;Regex;Repetitions;
Matching Optional Items;20;7;Easy;;Regex;Repetitions;
Matching Word Boundaries;20;8;Easy;;Regex;Grouping and Capturing;
Capturing & Non-Capturing Groups;20;8;Easy;;Regex;Grouping and Capturing;
Alternative Matching;20;8;Easy;;Regex;Grouping and Capturing;
HackerRank Tweets;5;5;Easy;;Regex;Applications;
Split the Phone Numbers;5;8;Easy;;Regex;Applications;
Find Hackerrank;5;7;Easy;;Regex;Applications;
The British and American Style of Spelling;5;11;Easy;;Regex;Applications;
Find a Substring;5;12;Easy;;Regex;Applications;
Alien Username;5;13;Easy;;Regex;Applications;
Valid PAN Format;5;24;Easy;;Regex;Applications;
IP Address Validation;10;25;Easy;;Regex;Applications;
Detect HTML Attributes;10;26;Easy;;Regex;Applications;
Detect HTML Tags;10;27;Easy;;Regex;Applications;
Detecting Valid Latitude and Longitude Pairs;20;20;Easy;;Regex;Applications;
