Placements;40;50;Difficult;https://www.hackerrank.com/challenges/placements
Symmetric Pairs;40;60;Difficult;https://www.hackerrank.com/challenges/symmetric-pairs
Projects;40;70;Difficult;https://www.hackerrank.com/challenges/projects
