The Report;20;40;Difficult;https://www.hackerrank.com/challenges/the-report
Average Population of Each Continent;10;50;Moderate;https://www.hackerrank.com/challenges/average-population-of-each-continent
African Cities;10;50;Moderate;https://www.hackerrank.com/challenges/african-cities
Asian Population;10;50;Moderate;https://www.hackerrank.com/challenges/asian-population
