Pacman A*;5;52;Moderate;https://www.hackerrank.com/challenges/pacman-astar
Pacman - UCS;5;56;Difficult;https://www.hackerrank.com/challenges/pacman-ucs
PacMan - BFS;10;57;Moderate;https://www.hackerrank.com/challenges/pacman-bfs
N Puzzle;15;63;Difficult;https://www.hackerrank.com/challenges/n-puzzle
PacMan - DFS;15;71;Easy;https://www.hackerrank.com/challenges/pacman-dfs
