Linear Algebra Foundations #1 - Matrix Addition;2;1;Easy;https://www.hackerrank.com/challenges/linear-algebra-foundations-1
Linear Algebra Foundations #2 - Matrix Subtraction;2;1;Easy;https://www.hackerrank.com/challenges/linear-algebra-foundations-1-matrix-subtraction
Linear Algebra Foundations #3- Matrix Multiplication;2;2;Easy;https://www.hackerrank.com/challenges/linear-algebra-foundations-3-matrix-multiplication
Linear Algebra Foundations #4- Matrix Multiplication;2;2;Easy;https://www.hackerrank.com/challenges/linear-algebra-foundations-4-matrix-multiplication
Determinant of the matrix #1;5;5;Moderate;https://www.hackerrank.com/challenges/determinant-of-the-matrix-1
Determinant of the matrix #3;5;5;Moderate;https://www.hackerrank.com/challenges/determinant-of-the-matrix-3
Determinant of the matrix #2;5;5;Difficult;https://www.hackerrank.com/challenges/determinant-of-the-matrix-2
Eigenvalue of matrix #1;5;15;Difficult;https://www.hackerrank.com/challenges/eigenvalue-of-matrix-1
Eigenvalue of matrix #3;5;15;Difficult;https://www.hackerrank.com/challenges/eigenvalues-of-matrix-3
Eigenvalue of matrix #2;5;15;Difficult;https://www.hackerrank.com/challenges/eigenvalue-of-matrix-2
Eigenvalue of matrix #4;5;15;Difficult;https://www.hackerrank.com/challenges/eigenvalues-of-matrix-4
Linear Algebra Foundations #5 - The 100th Power of a Matrix;5;20;Moderate;https://www.hackerrank.com/challenges/linear-algebra-foundations-5-the-100th-power-of-a-matrix
Linear Algebra Foundations #8 - Systems of Equations;5;22;Difficult;https://www.hackerrank.com/challenges/linear-algebra-fundamentals-8-systems-of-equations
Linear Algebra Foundations #10 - Eigenvectors;5;23;Moderate;https://www.hackerrank.com/challenges/linear-algebra-fundamentals-10-eigenvectors
Linear Algebra Foundations #9 - Eigenvalues;5;23;Difficult;https://www.hackerrank.com/challenges/linear-algebra-fundamentals-9-eigenvalues
Linear Algebra Foundations #7 - The 1000th Power of a Matrix;5;25;Difficult;https://www.hackerrank.com/challenges/linear-algebra-foundations-7-the-1000th-power-of-a-matrix
Linear Algebra Foundations #6 - An Equation involving Matrices;5;25;Moderate;https://www.hackerrank.com/challenges/linear-algebra-foundations-6-the-nsupthsup-power-of-a-matrix
