Merging Communities;50;35;Difficult;https://www.hackerrank.com/challenges/merging-communities
Components in a graph;50;37;Moderate;https://www.hackerrank.com/challenges/components-in-graph
Kundu and Tree;80;61;Difficult;https://www.hackerrank.com/challenges/kundu-and-tree
