QHEAP1;25;20;Easy;https://www.hackerrank.com/challenges/qheap1
Find Median;50;37;Difficult;https://www.hackerrank.com/challenges/find-median-1
Minimum Average Waiting Time;80;61;Difficult;https://www.hackerrank.com/challenges/minimum-average-waiting-time
