Matching Same Text Again & Again;20;9;Easy;https://www.hackerrank.com/challenges/matching-same-text-again-again
Backreferences To Failed Groups;20;10;Easy;https://www.hackerrank.com/challenges/backreferences-to-failed-groups
Branch Reset Groups;20;11;Easy;https://www.hackerrank.com/challenges/branch-reset-groups
Forward References;20;12;Easy;https://www.hackerrank.com/challenges/forward-references
