Matching Specific Characters;10;3;Easy;https://www.hackerrank.com/challenges/matching-specific-characters
Excluding Specific Characters;10;4;Easy;https://www.hackerrank.com/challenges/excluding-specific-characters
Matching Range Of Characters;10;5;Easy;https://www.hackerrank.com/challenges/matching-range-of-characters
