Zipped!;10;7;Easy;https://www.hackerrank.com/challenges/zipped
Input();20;10;Easy;https://www.hackerrank.com/challenges/input
Python Evaluation;20;10;Easy;https://www.hackerrank.com/challenges/python-eval
Any or All;20;10;Easy;https://www.hackerrank.com/challenges/any-or-all
Sort Data;30;10;Moderate;https://www.hackerrank.com/challenges/python-sort-sort
ginortS;40;20;Moderate;https://www.hackerrank.com/challenges/ginorts
