Arrays;20;8;Easy;https://www.hackerrank.com/challenges/np-arrays
Shape and Reshape;20;10;Easy;https://www.hackerrank.com/challenges/np-shape-reshape
Transpose and Flatten;20;10;Easy;https://www.hackerrank.com/challenges/np-transpose-and-flatten
Concatenate;20;10;Easy;https://www.hackerrank.com/challenges/np-concatenate
Zeros and Ones;20;10;Easy;https://www.hackerrank.com/challenges/np-zeros-and-ones
Eye and Identity;20;10;Easy;https://www.hackerrank.com/challenges/np-eye-and-identity
Array Mathematics;20;10;Easy;https://www.hackerrank.com/challenges/np-array-mathematics
Inner and Outer;20;10;Easy;https://www.hackerrank.com/challenges/np-inner-and-outer
Sum and Prod;20;10;Easy;https://www.hackerrank.com/challenges/np-sum-and-prod
Min and Max;20;10;Easy;https://www.hackerrank.com/challenges/np-min-and-max
Floor, Ceil and Rint;20;10;Easy;https://www.hackerrank.com/challenges/floor-ceil-and-rint
Dot and Cross;20;12;Easy;https://www.hackerrank.com/challenges/np-dot-and-cross
Mean, Var and Std;20;12;Easy;https://www.hackerrank.com/challenges/np-mean-var-and-std
Polynomials;20;15;Easy;https://www.hackerrank.com/challenges/np-polynomials
Linear Algebra;20;15;Easy;https://www.hackerrank.com/challenges/np-linear-algebra
