Flipping bits;40;15;Easy;https://www.hackerrank.com/challenges/flipping-bits
Maximizing XOR;30;15;Easy;https://www.hackerrank.com/challenges/maximizing-xor
Lonely Integer;20;20;Easy;https://www.hackerrank.com/challenges/lonely-integer
Counter game;30;21;Difficult;https://www.hackerrank.com/challenges/counter-game
Sansa and XOR;30;32;Moderate;https://www.hackerrank.com/challenges/sansa-and-xor
Cipher;50;45;Moderate;https://www.hackerrank.com/challenges/cipher
Xoring Ninja;55;50;Difficult;https://www.hackerrank.com/challenges/xoring-ninja
Manipulative Numbers;55;55;Difficult;https://www.hackerrank.com/challenges/manipulative-numbers
Stone game;70;56;Difficult;https://www.hackerrank.com/challenges/stonegame
AND product;40;59;Moderate;https://www.hackerrank.com/challenges/and-product
String Transmission;60;59;Difficult;https://www.hackerrank.com/challenges/string-transmission
2's complement;70;70;Advanced;https://www.hackerrank.com/challenges/2s-complement
Changing Bits;70;71;Advanced;https://www.hackerrank.com/challenges/changing-bits
Xor subsequence;80;75;Advanced;https://www.hackerrank.com/challenges/xor-subsequence
XOR key;80;76;Advanced;https://www.hackerrank.com/challenges/xor-key
Hamming Distance;150;91;Advanced;https://www.hackerrank.com/challenges/hamming-distance
